%YAML 1.1
%TAG !u! tag:unity3d.com,2011:
--- !u!114 &11400000
MonoBehaviour:
  m_ObjectHideFlags: 0
  m_CorrespondingSourceObject: {fileID: 0}
  m_PrefabInstance: {fileID: 0}
  m_PrefabAsset: {fileID: 0}
  m_GameObject: {fileID: 0}
  m_Enabled: 1
  m_EditorHideFlags: 0
  m_Script: {fileID: 11500000, guid: a611f7f380207254fac0602675fe1d5a, type: 3}
  m_Name: Crossbow
  m_EditorClassIdentifier: 
  name: Crossbow
  description: A normal crossbow
  sprite: {fileID: 21300000, guid: fddfcac7e42275446ab9ac69c92f5f2b, type: 3}
  damage: 30
