%YAML 1.1
%TAG !u! tag:unity3d.com,2011:
--- !u!114 &11400000
MonoBehaviour:
  m_ObjectHideFlags: 0
  m_CorrespondingSourceObject: {fileID: 0}
  m_PrefabInstance: {fileID: 0}
  m_PrefabAsset: {fileID: 0}
  m_GameObject: {fileID: 0}
  m_Enabled: 1
  m_EditorHideFlags: 0
  m_Script: {fileID: 11500000, guid: 8e8d576625138184699d3efd9d6cee18, type: 3}
  m_Name: RedPotion
  m_EditorClassIdentifier: 
  name: Red Potion
  description: A potion that restores health
  sprite: {fileID: 21300000, guid: 5b99d676ac6e21b4db416a8340a99c18, type: 3}
  health: 20
